%YAML 1.1
%TAG !u! tag:unity3d.com,2011:
--- !u!1001 &100100000
Prefab:
  m_ObjectHideFlags: 1
  serializedVersion: 2
  m_Modification:
    m_TransformParent: {fileID: 0}
    m_Modifications: []
    m_RemovedComponents: []
  m_ParentPrefab: {fileID: 0}
  m_RootGameObject: {fileID: 1312416528756280}
  m_IsPrefabParent: 1
--- !u!1 &1312416528756280
GameObject:
  m_ObjectHideFlags: 0
  m_PrefabParentObject: {fileID: 0}
  m_PrefabInternal: {fileID: 100100000}
  serializedVersion: 5
  m_Component:
  - component: {fileID: 4079091087372134}
  - component: {fileID: 212789187126013100}
  - component: {fileID: 114762907535901296}
  - component: {fileID: 50980778435609366}
  - component: {fileID: 60634599468597644}
  m_Layer: 0
  m_Name: bullet
  m_TagString: Bullet
  m_Icon: {fileID: 0}
  m_NavMeshLayer: 0
  m_StaticEditorFlags: 0
  m_IsActive: 1
--- !u!4 &4079091087372134
Transform:
  m_ObjectHideFlags: 1
  m_PrefabParentObject: {fileID: 0}
  m_PrefabInternal: {fileID: 100100000}
  m_GameObject: {fileID: 1312416528756280}
  m_LocalRotation: {x: 0, y: 0, z: 0, w: 1}
  m_LocalPosition: {x: -10.519433, y: 4.3952045, z: 0}
  m_LocalScale: {x: 1, y: 1, z: 1}
  m_Children: []
  m_Father: {fileID: 0}
  m_RootOrder: 0
  m_LocalEulerAnglesHint: {x: 0, y: 0, z: 0}
--- !u!50 &50980778435609366
Rigidbody2D:
  serializedVersion: 4
  m_ObjectHideFlags: 1
  m_PrefabParentObject: {fileID: 0}
  m_PrefabInternal: {fileID: 100100000}
  m_GameObject: {fileID: 1312416528756280}
  m_BodyType: 0
  m_Simulated: 1
  m_UseFullKinematicContacts: 0
  m_UseAutoMass: 0
  m_Mass: 1
  m_LinearDrag: 0
  m_AngularDrag: 0
  m_GravityScale: 0
  m_Material: {fileID: 0}
  m_Interpolate: 0
  m_SleepingMode: 1
  m_CollisionDetection: 0
  m_Constraints: 6
--- !u!60 &60634599468597644
PolygonCollider2D:
  m_ObjectHideFlags: 1
  m_PrefabParentObject: {fileID: 0}
  m_PrefabInternal: {fileID: 100100000}
  m_GameObject: {fileID: 1312416528756280}
  m_Enabled: 1
  m_Density: 1
  m_Material: {fileID: 0}
  m_IsTrigger: 1
  m_UsedByEffector: 0
  m_UsedByComposite: 0
  m_Offset: {x: 0, y: 0}
  m_SpriteTilingProperty:
    border: {x: 0, y: 0, z: 0, w: 0}
    pivot: {x: 0.5, y: 0.5}
    oldSize: {x: 3.59, y: 1.99}
    newSize: {x: 3.59, y: 1.99}
    adaptiveTilingThreshold: 0.5
    drawMode: 0
    adaptiveTiling: 0
  m_AutoTiling: 0
  m_Points:
    m_Paths:
    - - {x: 1.415, y: -0.60499996}
      - {x: 1.495, y: -0.525}
      - {x: 1.545, y: -0.435}
      - {x: 1.645, y: -0.195}
      - {x: 1.645, y: -0.015}
      - {x: 1.605, y: 0.16499999}
      - {x: 1.5649999, y: 0.265}
      - {x: 1.535, y: 0.33499998}
      - {x: 1.4649999, y: 0.42499998}
      - {x: 1.365, y: 0.53499997}
      - {x: 1.235, y: 0.60499996}
      - {x: 1.125, y: 0.635}
      - {x: 1.015, y: 0.655}
      - {x: 0.895, y: 0.66499996}
      - {x: 0.625, y: 0.66499996}
      - {x: 0.53499997, y: 0.655}
      - {x: 0.415, y: 0.635}
      - {x: 0.325, y: 0.625}
      - {x: 0.125, y: 0.585}
      - {x: 0.044999998, y: 0.575}
      - {x: -0.235, y: 0.48499998}
      - {x: -0.315, y: 0.465}
      - {x: -0.585, y: 0.375}
      - {x: -0.72499996, y: 0.33499998}
      - {x: -0.895, y: 0.295}
      - {x: -0.995, y: 0.265}
      - {x: -1.475, y: 0.065}
      - {x: -1.605, y: 0.005}
      - {x: -1.675, y: -0.044999998}
      - {x: -1.675, y: -0.105}
      - {x: -1.655, y: -0.13499999}
      - {x: -1.5749999, y: -0.155}
      - {x: -1.355, y: -0.195}
      - {x: -1.115, y: -0.235}
      - {x: -0.955, y: -0.265}
      - {x: -0.835, y: -0.285}
      - {x: -0.565, y: -0.345}
      - {x: -0.315, y: -0.405}
      - {x: -0.195, y: -0.435}
      - {x: 0.105, y: -0.505}
      - {x: 0.39499998, y: -0.585}
      - {x: 0.435, y: -0.59499997}
      - {x: 0.615, y: -0.645}
      - {x: 0.715, y: -0.675}
      - {x: 0.79499996, y: -0.705}
      - {x: 1.045, y: -0.705}
      - {x: 1.175, y: -0.685}
      - {x: 1.245, y: -0.675}
      - {x: 1.285, y: -0.66499996}
--- !u!114 &114762907535901296
MonoBehaviour:
  m_ObjectHideFlags: 1
  m_PrefabParentObject: {fileID: 0}
  m_PrefabInternal: {fileID: 100100000}
  m_GameObject: {fileID: 1312416528756280}
  m_Enabled: 1
  m_EditorHideFlags: 0
  m_Script: {fileID: 11500000, guid: 2e155bc25a6d44f359a235fc6fe23fcd, type: 3}
  m_Name: 
  m_EditorClassIdentifier: 
  speed: 50
--- !u!212 &212789187126013100
SpriteRenderer:
  m_ObjectHideFlags: 1
  m_PrefabParentObject: {fileID: 0}
  m_PrefabInternal: {fileID: 100100000}
  m_GameObject: {fileID: 1312416528756280}
  m_Enabled: 1
  m_CastShadows: 0
  m_ReceiveShadows: 0
  m_DynamicOccludee: 1
  m_MotionVectors: 1
  m_LightProbeUsage: 1
  m_ReflectionProbeUsage: 1
  m_Materials:
  - {fileID: 10754, guid: 0000000000000000f000000000000000, type: 0}
  m_StaticBatchInfo:
    firstSubMesh: 0
    subMeshCount: 0
  m_StaticBatchRoot: {fileID: 0}
  m_ProbeAnchor: {fileID: 0}
  m_LightProbeVolumeOverride: {fileID: 0}
  m_ScaleInLightmap: 1
  m_PreserveUVs: 0
  m_IgnoreNormalsForChartDetection: 0
  m_ImportantGI: 0
  m_StitchLightmapSeams: 0
  m_SelectedEditorRenderState: 0
  m_MinimumChartSize: 4
  m_AutoUVMaxDistance: 0.5
  m_AutoUVMaxAngle: 89
  m_LightmapParameters: {fileID: 0}
  m_SortingLayerID: 0
  m_SortingLayer: 0
  m_SortingOrder: 0
  m_Sprite: {fileID: 21300000, guid: 6665c56b27929284fa19f2fc80e62ff3, type: 3}
  m_Color: {r: 1, g: 1, b: 1, a: 1}
  m_FlipX: 0
  m_FlipY: 0
  m_DrawMode: 0
  m_Size: {x: 3.59, y: 1.99}
  m_AdaptiveModeThreshold: 0.5
  m_SpriteTileMode: 0
  m_WasSpriteAssigned: 1
  m_MaskInteraction: 0
